…
## 

Another example of unstructured data



::: {.cell}
::: {.cell-output .cell-output-stdout}

```
# A tibble: 40 × 2
   message_id message                                                           
   <chr>      <chr>                                                             
 1 msg_001    Hey everyone — I'm Nina, and I turned 24 this spring.             
 2 msg_002    Most folks online know me as Mateo. I'm 31 years old.             
 3 msg_003    Hi all! Priya here, 22 and excited to join this server.           
 4 msg_004    The username's Omar, but you can just call me Omar — I'm 46.      
 5 msg_005    Hello from Sophie. I celebrated number 29 a couple months ago.    
 6 msg_006    Name's Diego. Been around for 38 years now.                       
 7 msg_007    What's up, I'm Aisha, age 26, joining from Nairobi.               
 8 msg_008    You can call me Benji. Just hit 33 last month.                    
 9 msg_009    Hey group, this is Elena checking in — 41 years old today, actual…
10 msg_010    Jordan here. Nineteen and mostly here to learn.                   
# ℹ 30 more rows
```
…
extracted <- bind_rows(results)

print(extracted)
```

::: {.cell-output .cell-output-stdout}

```
# A tibble: 40 × 4
   message_id message                                                name    age
   <chr>      <chr>                                                  <chr> <int>
 1 msg_001    Hey everyone — I'm Nina, and I turned 24 this spring.  Nina     24
 2 msg_002    Most folks online know me as Mateo. I'm 31 years old.  Mateo    31
 3 msg_003    Hi all! Priya here, 22 and excited to join this serve… Priya    22
 4 msg_004    The username's Omar, but you can just call me Omar — … Omar     46
 5 msg_005    Hello from Sophie. I celebrated number 29 a couple mo… Soph…    29
 6 msg_006    Name's Diego. Been around for 38 years now.            Diego    38
 7 msg_007    What's up, I'm Aisha, age 26, joining from Nairobi.    Aisha    26
 8 msg_008    You can call me Benji. Just hit 33 last month.         Benji    33
 9 msg_009    Hey group, this is Elena checking in — 41 years old t… Elena    41
10 msg_010    Jordan here. Nineteen and mostly here to learn.        Jord…    19
# ℹ 30 more rows
```
…
